ROM/simulation/qsim/rom_128x8_sync.msim.vcd
$comment
	File created using the following command:
		vcd file rom_128x8_sync.msim.vcd -direction
$end
$date
	Mon Dec 13 13:50:43 2021
$end
$version
	ModelSim Version 10.5b
$end
$timescale
	1ps
$end

$scope module rom_128x8_sync_vhd_vec_tst $end
$var wire 1 ! address [7] $end
$var wire 1 " address [6] $end
$var wire 1 # address [5] $end
$var wire 1 $ address [4] $end
$var wire 1 % address [3] $end
$var wire 1 & address [2] $end
$var wire 1 ' address [1] $end
$var wire 1 ( address [0] $end
$var wire 1 ) clock $end
$var wire 1 * data_out [7] $end
$var wire 1 + data_out [6] $end
$var wire 1 , data_out [5] $end
$var wire 1 - data_out [4] $end
$var wire 1 . data_out [3] $end
$var wire 1 / data_out [2] $end
$var wire 1 0 data_out [1] $end
$var wire 1 1 data_out [0] $end

$scope module i1 $end
$var wire 1 2 gnd $end
$var wire 1 3 vcc $end
$var wire 1 4 unknown $end
$var wire 1 5 devoe $end
$var wire 1 6 devclrn $end
$var wire 1 7 devpor $end
$var wire 1 8 ww_devoe $end
$var wire 1 9 ww_devclrn $end
$var wire 1 : ww_devpor $end
$var wire 1 ; ww_clock $end
$var wire 1 < ww_address [7] $end
$var wire 1 = ww_address [6] $end
$var wire 1 > ww_address [5] $end
$var wire 1 ? ww_address [4] $end
$var wire 1 @ ww_address [3] $end
$var wire 1 A ww_address [2] $end
$var wire 1 B ww_address [1] $end
$var wire 1 C ww_address [0] $end
$var wire 1 D ww_data_out [7] $end
$var wire 1 E ww_data_out [6] $end
$var wire 1 F ww_data_out [5] $end
$var wire 1 G ww_data_out [4] $end
$var wire 1 H ww_data_out [3] $end
$var wire 1 I ww_data_out [2] $end
$var wire 1 J ww_data_out [1] $end
$var wire 1 K ww_data_out [0] $end
$var wire 1 L \~QUARTUS_CREATED_GND~I_combout\ $end
$var wire 1 M \clock~input_o\ $end
$var wire 1 N \clock~inputCLKENA0_outclk\ $end
$var wire 1 O \address[5]~input_o\ $end
$var wire 1 P \address[2]~input_o\ $end
$var wire 1 Q \address[1]~input_o\ $end
$var wire 1 R \address[0]~input_o\ $end
$var wire 1 S \address[3]~input_o\ $end
$var wire 1 T \Mux6~0_combout\ $end
$var wire 1 U \address[4]~input_o\ $end
$var wire 1 V \address[6]~input_o\ $end
$var wire 1 W \Mux6~1_combout\ $end
$var wire 1 X \address[7]~input_o\ $end
$var wire 1 Y \data_out[1]~reg0_q\ $end
$var wire 1 Z \Mux3~0_combout\ $end
$var wire 1 [ \data_out[2]~reg0_q\ $end
$var wire 1 \ \Mux0~0_combout\ $end
$var wire 1 ] \Mux4~0_combout\ $end
$var wire 1 ^ \data_out[3]~reg0_q\ $end
$var wire 1 _ \Mux3~1_combout\ $end
$var wire 1 ` \data_out[4]~reg0_q\ $end
$var wire 1 a \Mux2~0_combout\ $end
$var wire 1 b \Mux2~1_combout\ $end
$var wire 1 c \data_out[5]~reg0_q\ $end
$var wire 1 d \Mux1~0_combout\ $end
$var wire 1 e \data_out[6]~reg0_q\ $end
$var wire 1 f \data_out[7]~reg0feeder_combout\ $end
$var wire 1 g \data_out[7]~reg0_q\ $end
$var wire 1 h \ALT_INV_Mux6~0_combout\ $end
$var wire 1 i \ALT_INV_Mux3~0_combout\ $end
$var wire 1 j \ALT_INV_Mux0~0_combout\ $end
$var wire 1 k \ALT_INV_address[7]~input_o\ $end
$var wire 1 l \ALT_INV_address[6]~input_o\ $end
$var wire 1 m \ALT_INV_address[5]~input_o\ $end
$var wire 1 n \ALT_INV_address[4]~input_o\ $end
$var wire 1 o \ALT_INV_address[3]~input_o\ $end
$var wire 1 p \ALT_INV_address[2]~input_o\ $end
$var wire 1 q \ALT_INV_address[1]~input_o\ $end
$var wire 1 r \ALT_INV_address[0]~input_o\ $end
$var wire 1 s \ALT_INV_Mux2~0_combout\ $end
$upscope $end
$upscope $end
$enddefinitions $end
#0
$dumpvars
0)
02
13
x4
15
16
17
18
19
1:
0;
xL
0M
0N
0O
0P
0Q
0R
0S
1T
0U
0V
1W
0X
0Y
1Z
0[
1\
0]
0^
0_
0`
0a
0b
0c
0d
0e
1f
0g
0h
0i
0j
1k
1l
1m
1n
1o
1p
1q
1r
1s
0!
0"
0#
0$
0%
0&
0'
0(
0<
0=
0>
0?
0@
0A
0B
0C
0D
0E
0F
0G
0H
0I
0J
0K
0*
0+
0,
0-
0.
0/
00
01
$end
#10000
1)
1;
1M
1N
1Y
1[
1g
1D
1I
1J
10
1/
1*
#20000
0)
1(
0;
1C
1R
0M
0N
0r
0Z
1]
1a
0s
1i
1b
#30000
1)
1;
1M
1N
0[
1^
1c
1F
1H
0I
0/
1.
1,
#40000
0)
0(
1'
0;
0C
1B
1Q
0R
0M
0N
1r
0q
1Z
0]
0a
1s
0i
1_
0b
#50000
1)
1;
1M
1N
1[
0^
1`
0c
0F
1G
0H
1I
1/
0.
1-
0,
#60000
0)
1(
0;
1C
1R
0M
0N
0r
0T
0Z
1a
1d
0s
1i
1h
0W
0_
1b
#70000
1)
1;
1M
1N
0Y
0[
0`
1c
1e
1E
1F
0G
0I
0J
00
0/
0-
1,
1+
#80000
0)
0(
0'
1&
0;
0C
0B
1A
1P
0Q
0R
0M
0N
1r
1q
0p
0\
0d
1j
0f
#90000
1)
1;
1M
1N
0e
0g
0D
0E
0+
0*
#100000
0)
1(
0;
1C
1R
0M
0N
0r
0a
1s
0b
#110000
1)
1;
1M
1N
0c
0F
0,
#120000
0)
0(
1'
0;
0C
1B
1Q
0R
0M
0N
1r
0q
#130000
1)
1;
1M
1N
#140000
0)
1(
0;
1C
1R
0M
0N
0r
#150000
1)
1;
1M
1N
#160000
0)
0(
0'
0&
1%
0;
0C
0B
0A
1@
1S
0P
0Q
0R
0M
0N
1r
1q
1p
0o
#170000
1)
1;
1M
1N
#180000
0)
1(
0;
1C
1R
0M
0N
0r
#190000
1)
1;
1M
1N
#200000
0)
0(
1'
0;
0C
1B
1Q
0R
0M
0N
1r
0q
#210000
1)
1;
1M
1N
#220000
0)
1(
0;
1C
1R
0M
0N
0r
#230000
1)
1;
1M
1N
#240000
0)
0(
0'
1&
0;
0C
0B
1A
1P
0Q
0R
0M
0N
1r
1q
0p
#250000
1)
1;
1M
1N
#260000
0)
1(
0;
1C
1R
0M
0N
0r
#270000
1)
1;
1M
1N
#280000
0)
0(
1'
0;
0C
1B
1Q
0R
0M
0N
1r
0q
#290000
1)
1;
1M
1N
#300000
0)
1(
0;
1C
1R
0M
0N
0r
#310000
1)
1;
1M
1N
#320000
0)
0(
0'
0&
0%
1$
0;
0C
0B
0A
0@
1?
1U
0S
0P
0Q
0R
0M
0N
1r
1q
1p
1o
0n
1T
0h
#330000
1)
1;
1M
1N
#340000
0)
1(
0;
1C
1R
0M
0N
0r
1a
0s
#350000
1)
1;
1M
1N
#360000
0)
0(
1'
0;
0C
1B
1Q
0R
0M
0N
1r
0q
0a
1s
#370000
1)
1;
1M
1N
#380000
0)
1(
0;
1C
1R
0M
0N
0r
0T
1a
0s
1h
#390000
1)
1;
1M
1N
#400000
0)
0(
0'
1&
0;
0C
0B
1A
1P
0Q
0R
0M
0N
1r
1q
0p
#410000
1)
1;
1M
1N
#420000
0)
1(
0;
1C
1R
0M
0N
0r
0a
1s
#430000
1)
1;
1M
1N
#440000
0)
0(
1'
0;
0C
1B
1Q
0R
0M
0N
1r
0q
#450000
1)
1;
1M
1N
#460000
0)
1(
0;
1C
1R
0M
0N
0r
#470000
1)
1;
1M
1N
#480000
0)
0(
0'
0&
1%
0;
0C
0B
0A
1@
1S
0P
0Q
0R
0M
0N
1r
1q
1p
0o
#490000
1)
1;
1M
1N
#500000
0)
1(
0;
1C
1R
0M
0N
0r
#510000
1)
1;
1M
1N
#520000
0)
0(
1'
0;
0C
1B
1Q
0R
0M
0N
1r
0q
#530000
1)
1;
1M
1N
#540000
0)
1(
0;
1C
1R
0M
0N
0r
#550000
1)
1;
1M
1N
#560000
0)
0(
0'
1&
0;
0C
0B
1A
1P
0Q
0R
0M
0N
1r
1q
0p
#570000
1)
1;
1M
1N
#580000
0)
1(
0;
1C
1R
0M
0N
0r
#590000
1)
1;
1M
1N
#600000
0)
0(
1'
0;
0C
1B
1Q
0R
0M
0N
1r
0q
#610000
1)
1;
1M
1N
#620000
0)
1(
0;
1C
1R
0M
0N
0r
#630000
1)
1;
1M
1N
#640000
0)
0(
0'
0&
0%
0$
1#
0;
0C
0B
0A
0@
0?
1>
1O
0U
0S
0P
0Q
0R
0M
0N
1r
1q
1p
1o
1n
0m
1T
0h
#650000
1)
1;
1M
1N
#660000
0)
1(
0;
1C
1R
0M
0N
0r
1a
0s
#670000
1)
1;
1M
1N
#680000
0)
0(
1'
0;
0C
1B
1Q
0R
0M
0N
1r
0q
0a
1s
#690000
1)
1;
1M
1N
#700000
0)
1(
0;
1C
1R
0M
0N
0r
0T
1a
0s
1h
#710000
1)
1;
1M
1N
#720000
0)
0(
0'
1&
0;
0C
0B
1A
1P
0Q
0R
0M
0N
1r
1q
0p
#730000
1)
1;
1M
1N
#740000
0)
1(
0;
1C
1R
0M
0N
0r
0a
1s
#750000
1)
1;
1M
1N
#760000
0)
0(
1'
0;
0C
1B
1Q
0R
0M
0N
1r
0q
#770000
1)
1;
1M
1N
#780000
0)
1(
0;
1C
1R
0M
0N
0r
#790000
1)
1;
1M
1N
#800000
0)
0(
0'
0&
1%
0;
0C
0B
0A
1@
1S
0P
0Q
0R
0M
0N
1r
1q
1p
0o
#810000
1)
1;
1M
1N
#820000
0)
1(
0;
1C
1R
0M
0N
0r
#830000
1)
1;
1M
1N
#840000
0)
0(
1'
0;
0C
1B
1Q
0R
0M
0N
1r
0q
#850000
1)
1;
1M
1N
#860000
0)
1(
0;
1C
1R
0M
0N
0r
#870000
1)
1;
1M
1N
#880000
0)
0(
0'
1&
0;
0C
0B
1A
1P
0Q
0R
0M
0N
1r
1q
0p
#890000
1)
1;
1M
1N
#900000
0)
1(
0;
1C
1R
0M
0N
0r
#910000
1)
1;
1M
1N
#920000
0)
0(
1'
0;
0C
1B
1Q
0R
0M
0N
1r
0q
#930000
1)
1;
1M
1N
#940000
0)
1(
0;
1C
1R
0M
0N
0r
#950000
1)
1;
1M
1N
#960000
0)
0(
0'
0&
0%
1$
0;
0C
0B
0A
0@
1?
1U
0S
0P
0Q
0R
0M
0N
1r
1q
1p
1o
0n
1T
0h
#970000
1)
1;
1M
1N
#980000
0)
1(
0;
1C
1R
0M
0N
0r
1a
0s
#990000
1)
1;
1M
1N
